
 SMI++ State Manager Version - v51r1- Date : 05-October-2017:12:54

Options:
Diagnostic Level(-d): 1
Unlocked IFs(-u): 1
New time format(-t): 1
Dns node(-dns): alidcsdimdns
Max no of state changes per second(-loopMaxChanges): 25
Fatal no of state changes per second(-loopMaxChangesFatal): 5000
Min Loop Duration(-loopMinDuration): -1

    SMI Domain : <SPDSECTOR_0>
    Input File : <D:/WinCC_Projects/spd_dcs\smi\SpdSector_0.sobj>


 +++ W A R N I N G ! +++
  Once a condition in an IF is evaluated, the IF's objects are UNLOCKED
2018.12.11 15:50:27.469 - SMI++ Initiator started
 Number of SMI Objects instantiated : 15
 Number of SMI Classes instantiated : 9
 Number of Object Sets instantiated : 7
2018.12.11 15:50:27.553 - SMI++ Initiator Finished

2018.12.11 15:50:27.553 - SMI++   Logic Engine started execution
2018.12.11 15:50:27.553 - <&ALLOC> starting up in state <NOT_ALLOCATED>
2018.12.11 15:50:27.553 - <&DOMAIN> starting up in state <READY>
2018.12.11 15:50:27.553 - <SPDHSECTOR_0_A_FWM> starting up in state <EXCLUDED>
2018.12.11 15:50:27.553 - <SPDHSECTOR_0_C_FWM> starting up in state <EXCLUDED>
2018.12.11 15:50:27.556 - <SPDSECTOR_0_FWCNM> starting up in state <COMPLETE>
2018.12.11 15:50:27.556 - <SPDSECTOR_0_FWM> starting up in state <EXCLUDED>
2018.12.11 15:50:27.556 - <SPDSECTOR_0> starting up in state <OFF>
2018.12.11 15:50:27.556 - <&ALLOC> in state <NOT_ALLOCATED>
2018.12.11 15:50:27.556 - <&DOMAIN> in state <READY>
2018.12.11 15:50:27.556 - <SPDHSECTOR_0_A_FWM> in state <EXCLUDED>
2018.12.11 15:50:27.556 - <SPDHSECTOR_0_C_FWM> in state <EXCLUDED>
2018.12.11 15:50:27.556 - <SPDSECTOR_0_FWCNM> in state <COMPLETE>
2018.12.11 15:50:27.556 - <SPDSECTOR_0_FWM> in state <EXCLUDED>
2018.12.11 15:50:27.556 - <SPDSECTOR_0> in state <OFF>
2018.12.11 15:50:27.556 - <SPDSECTOR_0_FWCNM> in state <INCOMPLETE>
2018.12.11 15:50:27.570 - <SPDHSECTOR_0_A::SPDHSECTOR_0_A> in state <OFF/RUNMODE(I)=0/VERSIONN(I)=0/CALIBMODE=ALL>
2018.12.11 15:50:27.572 - <SPDHSECTOR_0_A::&ALLOC> in state <NOT_ALLOCATED>
2018.12.11 15:50:27.572 - <SPDHSECTOR_0_C::SPDHSECTOR_0_C> in state <OFF/RUNMODE(I)=0/VERSIONN(I)=0/CALIBMODE=ALL>
2018.12.11 15:50:27.572 - <SPDHSECTOR_0_C::&ALLOC> in state <NOT_ALLOCATED>
2018.12.11 15:50:27.572 - <SPDHSECTOR_0_C::SPDHSECTOR_0_C_FWCNM> in state <COMPLETE>
2018.12.11 15:50:27.572 - <SPDHSECTOR_0_C::SPDHSECTOR_0_C_FWM> in state <EXCLUDED>
2018.12.11 15:50:27.572 - <SPDHSECTOR_0_A::SPDHSECTOR_0_A_FWCNM> in state <COMPLETE>
2018.12.11 15:50:27.572 - <SPDHSECTOR_0_A::SPDHSECTOR_0_A_FWM> in state <EXCLUDED>

2018.12.11 15:50:45.005 - <SPDSECTOR_0_FWM> External action <INCLUDE/OWNER=spd_dcs:Manager3/EXCLUSIVE=YES/&ID(S)=884@ALIDCSCOM815.cern.ch/&CONN_ID(I)=7>
2018.12.11 15:50:45.005 - <SPDSECTOR_0_FWM> executing action <INCLUDE/OWNER=spd_dcs:Manager3/EXCLUSIVE=YES>
2018.12.11 15:50:45.006 - <SPDHSECTOR_0_A_FWM> executing action <INCLUDE/OWNER=spd_dcs:Manager3/EXCLUSIVE=YES>
2018.12.11 15:50:45.006 - <SPDHSECTOR_0_C_FWM> executing action <INCLUDE/OWNER=spd_dcs:Manager3/EXCLUSIVE=YES>
2018.12.11 15:50:45.006 - <SPDHSECTOR_0_A::SPDHSECTOR_0_A_FWM> executing action <INCLUDE/OWNER=spd_dcs:Manager3/EXCLUSIVE=YES>
2018.12.11 15:50:45.006 - <SPDHSECTOR_0_C::SPDHSECTOR_0_C_FWM> executing action <INCLUDE/OWNER=spd_dcs:Manager3/EXCLUSIVE=YES>
2018.12.11 15:50:45.006 - <SPDSECTOR_0_FWM> in state <INCLUDED>
2018.12.11 15:50:45.006 - <SPDHSECTOR_0_A_FWM> in state <INCLUDED>
2018.12.11 15:50:45.007 - <SPDHSECTOR_0_C_FWM> in state <INCLUDED>
2018.12.11 15:50:45.007 - <SPDSECTOR_0_FWCNM> in state <COMPLETE>
2018.12.11 15:50:45.060 - <SPDHSECTOR_0_C::SPDHSECTOR_0_C_FWM> in state <INCLUDED>
2018.12.11 15:50:45.060 - <SPDHSECTOR_0_A::SPDHSECTOR_0_A_FWM> in state <INCLUDED>
2018.12.11 16:41:10.105 - <SPDHSECTOR_0_A::SPDHSECTOR_0_A> in state <MIXED/RUNMODE(I)=0/VERSIONN(I)=0/CALIBMODE=ALL>
2018.12.11 16:41:10.105 - <SPDSECTOR_0> in state <MIXED>
2018.12.11 16:41:10.154 - <SPDHSECTOR_0_A::SPDHSECTOR_0_A> in state <ERROR/RUNMODE(I)=0/VERSIONN(I)=0/CALIBMODE=ALL>
2018.12.11 16:41:10.154 - <SPDSECTOR_0> in state <ERROR>
2019.01.16 16:13:29.571 - <SPDHSECTOR_0_C::SPDHSECTOR_0_C> in state <MIXED/RUNMODE(I)=0/VERSIONN(I)=0/CALIBMODE=ALL>
2019.01.16 16:13:29.579 - <SPDHSECTOR_0_C::SPDHSECTOR_0_C> in state <ERROR/RUNMODE(I)=0/VERSIONN(I)=0/CALIBMODE=ALL>
