report file SpdCalibParser.h
	 total = 68, comments = 4, code lines = 64
	 comment ratio = 5.88 %
report file stdafx.h
	 total = 8, comments = 5, code lines = 3
	 comment ratio = 62.50 %
report file parsePixelConfig.cpp
	 total = 133, comments = 8, code lines = 125
	 comment ratio = 6.02 %
report file SpdCalibParser.cpp
	 total = 243, comments = 59, code lines = 184
	 comment ratio = 24.28 %
report file spdDbtest.cpp
	 total = 69, comments = 49, code lines = 20
	 comment ratio = 71.01 %
report file stdafx.cpp
	 total = 6, comments = 5, code lines = 1
	 comment ratio = 83.33 %
total report 
	 total = 527, comments = 130, code lines = 397
	 comment ratio = 24.67 %
