processing file D:/WinCC_Projects/spd_a/config/fwInstallationInit.config
DpValue (10): Values for fwInstallation_agentParametrization.db.connection.server sent.
DpValue (11): Values for fwInstallation_agentParametrization.db.connection.username sent.
DpValue (12): Values for fwInstallation_agentParametrization.db.connection.password sent.
DpValue (13): Values for fwInstallation_agentParametrization.db.connection.initialized sent.
DpValue (14): Values for fwInstallation_agentParametrization.db.connection.schemaOwner sent.
DpValue (15): Values for fwInstallation_agentParametrization.db.useDB sent.
DpValue (16): Values for fwInstallation_agentParametrization.db.projectStatus sent.
DpValue (17): Values for fwInstallation_agentParametrization.lock sent.
DpValue (18): Values for fwInstallation_agentParametrization.syncInterval sent.
DpValue (19): Values for fwInstallation_agentParametrization.managers.protected sent.
Waiting for last response from eventmanager...
Scanning of file D:/WinCC_Projects/spd_a/config/fwInstallationInit.config is finished (0)
End of Program
