digraph structs
{
  edge [fontname="FreeSans",fontsize="10",labelfontname="FreeSans",labelfontsize="10"];
  node [fontname="FreeSans",fontsize="10",shape=record];
  rankdir=LR;
  Node1 [label="fwDpFunction common functions and variables",height=0.2,width=0.4,color="black", fillcolor="white", style="filled",URL="$a00027.html"];
  Node0 [label="fwDpFunction DPE Connection",height=0.2,width=0.4,color="black", fillcolor="grey75", style="filled" fontcolor="black"];
  Node0->Node1 [shape=plaintext, color="midnightblue", dir="back", style="solid"];
}
